module bitbucket.org/jaehyu/go-grpc-http-rest-microservice-tutorial

go 1.12

require (
	github.com/DATA-DOG/go-sqlmock v1.3.3
	github.com/go-sql-driver/mysql v1.4.1
	github.com/golang/protobuf v1.3.1
	google.golang.org/grpc v1.20.1
)
